{
    "parent": "block/orientable",
    "textures": 
    {
        "top": "planttech2:blocks/machines/machines_side_top",
        "front": "planttech2:blocks/machines/dnaextractor_front",
        "side": "planttech2:blocks/machines/machines_side_top"
    }
}