{
    "forge_marker": 1,
    "defaults": {
        "model": "planttech2:model_crop",
        "textures": { "bars": "planttech2:blocks/cropbars"}
    },
    "variants": {
        "0": [{
            "textures": {
                "crop": "planttech2:blocks/plants/plant_mob_0"
            }   
        }],
        "1": [{
            "textures": {
                "crop": "planttech2:blocks/plants/plant_mob_0"
            }
        }],
        "2": [{
            "textures": {
                "crop": "planttech2:blocks/plants/plant_mob_1"
            }
        }],
        "3": [{
            "textures": {
                "crop": "planttech2:blocks/plants/plant_mob_1"
            }
        }],
        "4": [{
            "textures": {
                "crop": "planttech2:blocks/plants/plant_mob_2"
            }
        }],
        "5": [{
            "textures": {
                "crop": "planttech2:blocks/plants/plant_mob_2"
            }
        }],
        "6": [{
            "textures": {
                "crop": "planttech2:blocks/plants/plant_mob_2"
            }
        }],
        "7": [{
            "textures": {
                "crop": "planttech2:blocks/plants/plant_blaze"
            }
        }]
    },
    "inventory": {
        "model": "crop",
        "textures": {
                "crop": "planttech2:blocks/plants/plant_blaze"
            }
    }

}