{
    "textures": {
        "cable_texture": "planttech2:blocks/cables/cable"
    },
	"elements": [
		{
			"name": "core",
			"from": [7, 7, 7],
			"to": [9, 9, 9],
			"faces": {
				"north": {"uv": [7, 7, 9, 9], "texture": "#cable_texture"},
				"east": {"uv": [7, 7, 9, 9], "texture": "#cable_texture"},
				"south": {"uv": [7, 7, 9, 9], "texture": "#cable_texture"},
				"west": {"uv": [7, 7, 9, 9], "texture": "#cable_texture"},
				"up": {"uv": [7, 7, 9, 9], "texture": "#cable_texture"},
				"down": {"uv": [7, 7, 9, 9], "texture": "#cable_texture"}
			}
		}
	]
}