{
    "textures": {
        "connection_south": "planttech2:blocks/cables/connection_in",
        "cable_texture": "planttech2:blocks/cables/cable"
    },
    "elements": [
        {
            "name": "connection_south",
            "from": [6, 6, 14],
            "to": [10, 10, 16],
            "faces": {
                "north": {"uv": [6, 6, 10, 10], "texture": "#connection_south"},
                "east": {"uv": [0, 0, 4, 6], "texture": "#connection_south"},
                "south": {"uv": [6, 6, 10, 10], "texture": "#connection_south"},
                "west": {"uv": [4, 0, 8, 6], "texture": "#connection_south"},
                "up": {"uv": [0, 10, 6, 14], "texture": "#connection_south"},
                "down": {"uv": [0, 6, 6, 10], "texture": "#connection_south"}
            }
        },
        {
            "name": "south",
            "from": [7, 7, 9],
            "to": [9, 9, 15],
            "faces": {
                "north": {"uv": [0, 7, 2, 9], "texture": "#cable_texture"},
                "east": {"uv": [0, 7, 7, 9], "texture": "#cable_texture"},
                "south": {"uv": [0, 7, 2, 9], "texture": "#cable_texture"},
                "west": {"uv": [9, 7, 16, 9], "texture": "#cable_texture"},
                "up": {"uv": [7, 9, 9, 16], "texture": "#cable_texture"},
                "down": {"uv": [7, 0, 9, 7], "texture": "#cable_texture"}
            }
        }
    ]
}