{
    "type": "minecraft:crafting_shaped",
    "pattern": [
        "A A",
        "A A",
        "   "
    ],
    "key": {
        "A": 
        {
            "item": "planttech2:kinnoium_ingot"
        }
    },
    "result": {
        "item": "planttech2:boots_kinnoium",
        "count": 1
    }
}
