{
    "type": "minecraft:crafting_shaped",
    "pattern": [
        "AAA",
        "B B",
        "CCC"
    ],
    "key": {
        "A": 
        {
            "item": "planttech2:plantium_ingot"
        },
        "B": 
        {
            "item": "minecraft:piston"
        },
        "C": 
        {
            "item": "planttech2:plantium_block"
        }
    },
    "result": {
        "item": "planttech2:compressor",
        "count": 1
    }
}
