{
    "type": "minecraft:crafting_shapeless",
    "ingredients": [
        {
            "item": "planttech2:dancium_ingot"
        }
    ],
    "result": {
        "item": "planttech2:dancium_nugget",
        "count": 9
    }
}
