{
    "type": "minecraft:crafting_shaped",
    "pattern": [
        "AAA",
        "A A",
        "A A"
    ],
    "key": {
        "A": 
        {
            "item": "planttech2:lenthurium_ingot"
        }
    },
    "result": {
        "item": "planttech2:leggings_lenthurium",
        "count": 1
    }
}
