{
    "type": "minecraft:crafting_shaped",
    "pattern": [
        "ACA",
        "BEB",
        "DDD"
    ],
    "key": {
        "A": 
        {
            "item": "planttech2:gear_plantium_infused"
        },
        "B": 
        {
            "item": "planttech2:cable"
        },
        "C": 
        {
            "item": "minecraft:daylight_detector"
        },
        "D": 
        {
            "item": "planttech2:plantium_ingot"
        },
        "E": 
        {
            "item": "planttech2:machineshell_infused"
        }
    },
    "result": {
        "item": "planttech2:solargenerator",
        "count": 1
    }
}
