{
    "type": "planttech2:compressing",
    "input": {
      "item": "planttech2:color_particles",
      "amount": 8
    },
    "result": {
      "item": "minecraft:rose_red",
      "amount": 1
    }
  }
